#base "base_notification.res"

"Resource/UI/notifications/notify_enemy_flag_taken_blue.res"
{	
	"Notification_Background"
	{
		"image"			"../hud/score_panel_blue_bg"
	}
	
	"Notification_Icon"	
	{
		"icon"			"ico_notify_flag_moving"
	}
	
	"Notification_Label"
	{	
		"labelText"		"The ENEMY SECURITY has been DISABLED!"
	}
}