"Resource/UI/SpectatorGUIHealth.res"
{
	"PlayerStatusHealthImage"
	{
		"ControlName"	"ImagePanel"
		"fieldName"		"PlayerStatusHealthImage"
		"xpos"			"7"
		"ypos"			"7"
		"zpos"			"4"
		"wide"			"18"
		"wide_minmode"	"14"
		"tall"			"18"
		"tall_minmode"	"14"
		"visible"		"1"
		"enabled"		"1"
		"scaleImage"	"1"	
	}		
	"PlayerStatusHealthImageBG"
	{
		"ControlName"	"ImagePanel"
		"fieldName"		"PlayerStatusHealthImageBG"
		"xpos"			"5"
		"xpos_minmode"	"6"
		"ypos"			"5"
		"ypos_minmode"	"6"
		"zpos"			"3"
		"wide"			"22"
		"wide_minmode"	"16"
		"tall"			"22"
		"tall_minmode"	"16"
		"visible"		"1"
		"enabled"		"1"
		"image"			"../hud/health_bg"
		"scaleImage"	"1"	
	}	
	"PlayerStatusHealthBonusImage"
	{
		"ControlName"	"ImagePanel"
		"fieldName"		"PlayerStatusHealthBonusImage"
		"xpos"			"5"
		"xpos_minmode"	"8"
		"ypos"			"5"
		"ypos_minmode"	"8"
		"zpos"			"3"
		"wide"			"22"
		"wide_minmode"	"12"
		"tall"			"22"
		"tall_minmode"	"12"
		"visible"		"0"
		"enabled"		"1"
		"image"			"../hud/health_over_bg"
		"scaleImage"	"1"	
	}
	"PlayerStatusHealthValue"
	{
		"ControlName"	"Label"
		"fieldName"		"PlayerStatusHealthValue"
		"xpos"			"75"
		"ypos"			"32"
		"zpos"			"5"
		"wide"			"50"
		"tall"			"18"
		"visible"		"0"
		"enabled"		"0"
		"textAlignment"	"center"	
	}
	"PlayerStatusArmorImage"
	{
		"ControlName"	"ImagePanel"
		"fieldName"		"PlayerStatusArmorImage"
		"xpos"			"29"
		"ypos"			"7"
		"zpos"			"4"
		"wide"			"18"
		"wide_minmode"	"14"
		"tall"			"18"
		"tall_minmode"	"14"
		"visible"		"1"
		"enabled"		"1"
		"scaleImage"	"1"	
	}
	"PlayerStatusArmorImageBG"
	{
		"ControlName"	"ImagePanel"
		"fieldName"		"PlayerStatusArmorImageBG"
		"xpos"			"27"
		"xpos_minmode"	"6"
		"ypos"			"5"
		"ypos_minmode"	"6"
		"zpos"			"3"
		"wide"			"22"
		"wide_minmode"	"16"
		"tall"			"22"
		"tall_minmode"	"16"
		"visible"		"1"
		"enabled"		"1"
		"image"			"../hud/armor_bg"
		"scaleImage"	"1"	
	}
}
