"Resource/UI/TargetID.res"
{
	"TargetIDBG"
	{
		"ControlName"		"CTFImagePanel"
		"fieldName"		"TargetIDBG"
		"xpos"			"0"
		"ypos"			"0"
		"zpos"			"-1"
		"wide"			"252"
		"tall"	 		"50"
		"autoResize"		"0"
		"pinCorner"		"0"
		"visible"		"1"
		"enabled"		"1"
		"image"			"../hud/score_panel_blue_bg"
		"scaleImage"		"1"
		"teambg_1"		"../hud/freezecam_black_bg"
		"teambg_2"		"../hud/freezecam_red_bg"
		"teambg_2_lodef"	"../hud/freezecam_red_bg_lodef"
		"teambg_3"		"../hud/freezecam_blue_bg"
		"teambg_3_lodef"	"../hud/freezecam_blue_bg_lodef"
	}
	"TargetNameLabel"
	{	
		"ControlName"		"Label"
		"fieldName"		"TargetNameLabel"
		"font"			"HudFontMediumSmallSecondary"
		"font_minmode"	"TFFontLarge"
		"xpos"			"54"
		"xpos_minmode"	"54"
		"ypos"			"13"
		"ypos_minmode"	"7"
		"zpos"			"1"
		"wide"			"640"
		"tall"			"24"
		"autoResize"		"0"
		"pinCorner"		"0"
		"visible"		"1"
		"enabled"		"1"
		"labelText"		"%targetname%"
		"textAlignment"		"North-West"
		"dulltext"		"0"
		"brighttext"		"0"
	}
	"SpectatorGUIHealth"
	{
		"ControlName"		"EditablePanel"
		"fieldName"		"SpectatorGUIHealth"
		"xpos"			"3"
		"ypos"			"6"
		"ypos_minmode"	"2"
		"wide"			"54"
		"tall"			"32"
		"visible"		"1"
		"enabled"		"1"	
		"HealthBonusPosAdj"	"10"
		"HealthDeathWarning"	"0.49"
		"TFFont"		"HudFontSmall"
		"HealthDeathWarningColor"	"HUDDeathWarning"
		"TextColor"		"HudOffWhite"
	}	
}
