	WeaponData
{
	// Attributes Base.
	"printname"			"#TF_Weapon_Shovel"
	"BuiltRightHanded"		"0"
	"MeleeWeapon"			"1"
	"weight"			"1"
	"WeaponType"		"melee"
	"ITEM_FLAG_NOITEMPICKUP" 	"1"
	
	// Attributes TF.
	"Damage"			"20"
	"TimeFireDelay"			"0.5"
	"TimeIdle"			"5.0"
	"HasTeamSkins_Viewmodel"	"1"

	// Ammo & Clip
	"primary_ammo"			"None"
	"secondary_ammo"		"None"

	// Buckets.	
	"bucket"			"0"
	"bucket_position"		"0"

	// Model & Animation
	"viewmodel"			"models/weapons/v_models/v_shovel_soldier.mdl"
	"playermodel"			"models/weapons/w_models/w_shovel.mdl"
	"anim_prefix"			"shovel"

	// Sounds for the weapon. There is a max of 16 sounds per category (i.e. max 16 "single_shot" sounds)
	SoundData
	{
		"melee_miss"		"Weapon_Shovel.Miss"
		"melee_hit"		"Weapon_Shovel.HitFlesh"
		"melee_hit_world"	"Weapon_Shovel.HitWorld"
		"burst"			"Weapon_Shovel.MissCrit"
	}

	// Weapon Sprite data is loaded by the Client DLL.
	TextureData
	{
		"weapon"
		{
				"file"		"sprites/bucket_shovel"
				"x"		"0"
				"y"		"0"
				"width"		"200"
				"height"		"128"
		}
		"weapon_s"
		{	
				"file"		"sprites/bucket_shovel"
				"x"		"0"
				"y"		"0"
				"width"		"200"
				"height"		"128"
		}

		"ammo"
		{
				"file"		"sprites/a_icons1"
				"x"		"55"
				"y"		"60"
				"width"		"73"
				"height"	"15"
		}

		"crosshair"
		{
				"file"		"sprites/crosshairs"
				"x"		"32"
				"y"		"32"
				"width"		"32"
				"height"	"32"
		}

		"autoaim"
		{
				"file"		"sprites/crosshairs"
				"x"		"0"
				"y"		"48"
				"width"		"24"
				"height"	"24"
		}
	}
}
